Chapter 7 Homework 3 Project | Data Mining
…
## ── Conflicts ────────────────────────────────────────── tidyverse_conflicts() ──
## x dplyr::filter() masks stats::filter()
## x dplyr::lag()    masks stats::lag()
## x purrr::lift()   masks caret::lift()

#clean code
tweets <- as_tibble(tweets_raw)

tweets_raw

## # A tibble: 16,005 x 843
##    `#abddarb` `#adsb` `#america` `#americafirst` `#american` `#antifa`
##    <chr>        <dbl>      <dbl>           <dbl>       <dbl>     <dbl>
##  1 0.0              0          0               0           0         0
##  2 0.0              0          0               0           0         0
##  3 0.0              0          0               0           0         0
##  4 0.0              0          0               0           0         0
##  5 0.0              0          0               0           0         0
##  6 0.0              0          0               0           0         0
##  7 0.0              0          0               0           0         0
##  8 0.0              0          0               0           0         0
##  9 0.0              0          0               0           0         0
## 10 0.0              0          0               0           0         0
## # … with 15,995 more rows, and 837 more variables: `#atlanta` <dbl>,
## #   `#aukland` <dbl>, `#australia` <dbl>, `#baltimor` <dbl>, `#biden` <dbl>,
## #   `#bidencheated2020` <dbl>, `#bidencrimefamilli` <dbl>, `#bidenharri` <dbl>,
## #   `#bidenharris2020` <dbl>, `#bidenharrisinaugur` <dbl>,
## #   `#bideninaugur` <dbl>, `#bidenwillneverbepresid` <dbl>,
## #   `#blacklivesmatt` <dbl>, `#blm` <dbl>, `#boston` <dbl>, `#break` <dbl>,
## #   `#breakingnew` <dbl>, `#california` <dbl>, `#canada` <dbl>,
## #   `#capitalhil` <dbl>, `#capitol` <dbl>, `#capitolbuild` <dbl>,
## #   `#capitolhil` <dbl>, `#capitolriot` <dbl>, `#chicago` <dbl>, `#cnn` <dbl>,
…
