Chapter 6 Tidyverse tools | Data Mining
…
## # A tibble: 6 x 13
##   name   year month   day  hour   lat  long status   category  wind pressure ts_diameter hu_diameter
##   <chr> <dbl> <dbl> <int> <dbl> <dbl> <dbl> <chr>    <ord>    <int>    <int>       <dbl>       <dbl>
## 1 Amy    1975     6    27     0  27.5 -79   tropica… -1          25     1013          NA          NA
## 2 Amy    1975     6    27     6  28.5 -79   tropica… -1          25     1013          NA          NA
## 3 Amy    1975     6    27    12  29.5 -79   tropica… -1          25     1013          NA          NA
## 4 Amy    1975     6    27    18  30.5 -79   tropica… -1          25     1013          NA          NA
## 5 Amy    1975     6    28     0  31.5 -78.8 tropica… -1          25     1012          NA          NA
## 6 Amy    1975     6    28     6  32.4 -78.7 tropica… -1          25     1012          NA          NA

You can use (data source, columns)

dplyr::select(storms, name, pressure)

## # A tibble: 10,010 x 2
##    name  pressure
##    <chr>    <int>
##  1 Amy       1013
##  2 Amy       1013
##  3 Amy       1013
##  4 Amy       1013
##  5 Amy       1012
##  6 Amy       1012
##  7 Amy       1011
##  8 Amy       1006
##  9 Amy       1004
## 10 Amy       1002
## # … with 10,000 more rows

We can also do (data source, -columns) to choose all but that column, i.e.:

dplyr::select(storms, -name)

## # A tibble: 10,010 x 12
##     year month   day  hour   lat  long status        category  wind pressure ts_diameter hu_diameter
##    <dbl> <dbl> <int> <dbl> <dbl> <dbl> <chr>         <ord>    <int>    <int>       <dbl>       <dbl>
##  1  1975     6    27     0  27.5 -79   tropical dep… -1          25     1013          NA          NA
##  2  1975     6    27     6  28.5 -79   tropical dep… -1          25     1013          NA          NA
##  3  1975     6    27    12  29.5 -79   tropical dep… -1          25     1013          NA          NA
##  4  1975     6    27    18  30.5 -79   tropical dep… -1          25     1013          NA          NA
##  5  1975     6    28     0  31.5 -78.8 tropical dep… -1          25     1012          NA          NA
##  6  1975     6    28     6  32.4 -78.7 tropical dep… -1          25     1012          NA          NA
##  7  1975     6    28    12  33.3 -78   tropical dep… -1          25     1011          NA          NA
##  8  1975     6    28    18  34   -77   tropical dep… -1          30     1006          NA          NA
##  9  1975     6    29     0  34.4 -75.8 tropical sto… 0           35     1004          NA          NA
## 10  1975     6    29     6  34   -74.8 tropical sto… 0           40     1002          NA          NA
## # … with 10,000 more rows
…
one_of()
Select columns whose names are in a group of names

starts_with()
Select columns whose name starts with a character string

6.2 Filter

This will apply a test to every row in the data frame and return just the rows that pass the test. You can combine by putting a comma in the state. It acts as AND.

dplyr::filter(storms, wind >= 50,
              name %in% c("alberto", "Alex", "allison"))

## # A tibble: 35 x 13
##    name   year month   day  hour   lat  long status  category  wind pressure ts_diameter hu_diameter
##    <chr> <dbl> <dbl> <int> <dbl> <dbl> <dbl> <chr>   <ord>    <int>    <int>       <dbl>       <dbl>
##  1 Alex   2004     8     2    12  31.3 -79   tropic… 0           50      992        155.         0  
##  2 Alex   2004     8     2    18  31.8 -78.7 tropic… 0           50      993        144.         0  
##  3 Alex   2004     8     3     0  32.4 -78.2 tropic… 0           60      987        144.         0  
##  4 Alex   2004     8     3     6  33   -77.4 hurric… 1           70      983        150.        46.0
##  5 Alex   2004     8     3    12  34.2 -76.4 hurric… 2           85      974        150.        46.0
##  6 Alex   2004     8     3    18  35.3 -75.2 hurric… 2           85      972        190.        57.5
##  7 Alex   2004     8     4     0  36   -73.7 hurric… 1           80      974        178.        63.3
##  8 Alex   2004     8     4     6  36.8 -72.1 hurric… 1           80      973        224.        74.8
##  9 Alex   2004     8     4    12  37.3 -70.2 hurric… 2           85      973        224.        74.8
## 10 Alex   2004     8     4    18  37.8 -68.3 hurric… 2           95      965        259.        74.8
## # … with 25 more rows
…
is.na
is NA

!is.na
Is not NA

6.3 Mutate

The mutate function takes your data frame and it returns a copy of the data with, with additional variables that you derive from the variable set that exists in the data. So mutate is there for anything you can derive from the data you already have, and want to make a new column from it.

storms %>% 
  mutate(ratio = pressure / wind) %>% 
  select(name, pressure, wind, ratio)

## # A tibble: 10,010 x 4
##    name  pressure  wind ratio
##    <chr>    <int> <int> <dbl>
##  1 Amy       1013    25  40.5
##  2 Amy       1013    25  40.5
##  3 Amy       1013    25  40.5
##  4 Amy       1013    25  40.5
##  5 Amy       1012    25  40.5
##  6 Amy       1012    25  40.5
##  7 Amy       1011    25  40.4
##  8 Amy       1006    30  33.5
##  9 Amy       1004    35  28.7
## 10 Amy       1002    40  25.0
## # … with 10,000 more rows

You can also make multiple columns at the same time, even using columns that are created at the same time, as long as those come before chronologically, i.e.

storms %>% 
  mutate(ratio = pressure / wind, inverse = ratio^-1) %>% 
  select(name, pressure, wind, ratio, inverse)

## # A tibble: 10,010 x 5
##    name  pressure  wind ratio inverse
##    <chr>    <int> <int> <dbl>   <dbl>
##  1 Amy       1013    25  40.5  0.0247
##  2 Amy       1013    25  40.5  0.0247
##  3 Amy       1013    25  40.5  0.0247
##  4 Amy       1013    25  40.5  0.0247
##  5 Amy       1012    25  40.5  0.0247
##  6 Amy       1012    25  40.5  0.0247
##  7 Amy       1011    25  40.4  0.0247
##  8 Amy       1006    30  33.5  0.0298
##  9 Amy       1004    35  28.7  0.0349
## 10 Amy       1002    40  25.0  0.0399
## # … with 10,000 more rows
…
